C:\Users\Donzello\source\repos\selecaofortes\Simulador\Simulador.API\Frontend\dist\out-tsc\e2e\app.po.js
C:\Users\Donzello\source\repos\selecaofortes\Simulador\Simulador.API\Frontend\dist\out-tsc\e2e\app.po.js.map
C:\Users\Donzello\source\repos\selecaofortes\Simulador\Simulador.API\Frontend\dist\out-tsc\e2e\app.e2e-spec.js
C:\Users\Donzello\source\repos\selecaofortes\Simulador\Simulador.API\Frontend\dist\out-tsc\e2e\app.e2e-spec.js.map
C:\Users\Donzello\source\repos\selecaofortes\Simulador\Simulador.API\Frontend\dist\out-tsc\e2e\src\app.po.js
C:\Users\Donzello\source\repos\selecaofortes\Simulador\Simulador.API\Frontend\dist\out-tsc\e2e\src\app.po.js.map
C:\Users\Donzello\source\repos\selecaofortes\Simulador\Simulador.API\Frontend\dist\out-tsc\e2e\src\app.e2e-spec.js
C:\Users\Donzello\source\repos\selecaofortes\Simulador\Simulador.API\Frontend\dist\out-tsc\e2e\src\app.e2e-spec.js.map
C:\Users\Donzello\source\repos\selecaofortes\Simulador\Simulador.API\Frontend\dist\out-tsc\library\angular-admin-lte\src\lib\services\routing.service.js
C:\Users\Donzello\source\repos\selecaofortes\Simulador\Simulador.API\Frontend\dist\out-tsc\library\angular-admin-lte\src\lib\services\routing.service.js.map
C:\Users\Donzello\source\repos\selecaofortes\Simulador\Simulador.API\Frontend\dist\out-tsc\library\angular-admin-lte\src\lib\breadcrumbs\breadcrumbs.component.js
C:\Users\Donzello\source\repos\selecaofortes\Simulador\Simulador.API\Frontend\dist\out-tsc\library\angular-admin-lte\src\lib\breadcrumbs\breadcrumbs.component.js.map
C:\Users\Donzello\source\repos\selecaofortes\Simulador\Simulador.API\Frontend\dist\out-tsc\library\angular-admin-lte\src\lib\breadcrumbs\breadcrumbs.module.js
C:\Users\Donzello\source\repos\selecaofortes\Simulador\Simulador.API\Frontend\dist\out-tsc\library\angular-admin-lte\src\lib\breadcrumbs\breadcrumbs.module.js.map
C:\Users\Donzello\source\repos\selecaofortes\Simulador\Simulador.API\Frontend\dist\out-tsc\library\angular-admin-lte\src\lib\layout\layout.state.js
C:\Users\Donzello\source\repos\selecaofortes\Simulador\Simulador.API\Frontend\dist\out-tsc\library\angular-admin-lte\src\lib\layout\layout.state.js.map
C:\Users\Donzello\source\repos\selecaofortes\Simulador\Simulador.API\Frontend\dist\out-tsc\library\angular-admin-lte\src\lib\layout\layout.store.js
C:\Users\Donzello\source\repos\selecaofortes\Simulador\Simulador.API\Frontend\dist\out-tsc\library\angular-admin-lte\src\lib\layout\layout.store.js.map
C:\Users\Donzello\source\repos\selecaofortes\Simulador\Simulador.API\Frontend\dist\out-tsc\library\angular-admin-lte\src\lib\layout\sidebar-right\sidebar-right.service.js
C:\Users\Donzello\source\repos\selecaofortes\Simulador\Simulador.API\Frontend\dist\out-tsc\library\angular-admin-lte\src\lib\layout\sidebar-right\sidebar-right.service.js.map
C:\Users\Donzello\source\repos\selecaofortes\Simulador\Simulador.API\Frontend\dist\out-tsc\library\angular-admin-lte\src\lib\layout\header\header.service.js
C:\Users\Donzello\source\repos\selecaofortes\Simulador\Simulador.API\Frontend\dist\out-tsc\library\angular-admin-lte\src\lib\layout\header\header.service.js.map
C:\Users\Donzello\source\repos\selecaofortes\Simulador\Simulador.API\Frontend\dist\out-tsc\library\angular-admin-lte\src\lib\layout\footer\footer.service.js
C:\Users\Donzello\source\repos\selecaofortes\Simulador\Simulador.API\Frontend\dist\out-tsc\library\angular-admin-lte\src\lib\layout\footer\footer.service.js.map
C:\Users\Donzello\source\repos\selecaofortes\Simulador\Simulador.API\Frontend\dist\out-tsc\library\angular-admin-lte\src\lib\helpers.js
C:\Users\Donzello\source\repos\selecaofortes\Simulador\Simulador.API\Frontend\dist\out-tsc\library\angular-admin-lte\src\lib\helpers.js.map
C:\Users\Donzello\source\repos\selecaofortes\Simulador\Simulador.API\Frontend\dist\out-tsc\library\angular-admin-lte\src\lib\layout\content\content.component.js
C:\Users\Donzello\source\repos\selecaofortes\Simulador\Simulador.API\Frontend\dist\out-tsc\library\angular-admin-lte\src\lib\layout\content\content.component.js.map
C:\Users\Donzello\source\repos\selecaofortes\Simulador\Simulador.API\Frontend\dist\out-tsc\library\angular-admin-lte\src\lib\layout\content\content.module.js
C:\Users\Donzello\source\repos\selecaofortes\Simulador\Simulador.API\Frontend\dist\out-tsc\library\angular-admin-lte\src\lib\layout\content\content.module.js.map
C:\Users\Donzello\source\repos\selecaofortes\Simulador\Simulador.API\Frontend\dist\out-tsc\library\angular-admin-lte\src\lib\layout\footer\footer.component.js
C:\Users\Donzello\source\repos\selecaofortes\Simulador\Simulador.API\Frontend\dist\out-tsc\library\angular-admin-lte\src\lib\layout\footer\footer.component.js.map
C:\Users\Donzello\source\repos\selecaofortes\Simulador\Simulador.API\Frontend\dist\out-tsc\library\angular-admin-lte\src\lib\layout\footer\footer.module.js
C:\Users\Donzello\source\repos\selecaofortes\Simulador\Simulador.API\Frontend\dist\out-tsc\library\angular-admin-lte\src\lib\layout\footer\footer.module.js.map
C:\Users\Donzello\source\repos\selecaofortes\Simulador\Simulador.API\Frontend\dist\out-tsc\library\angular-admin-lte\src\lib\layout\header\header.component.js
C:\Users\Donzello\source\repos\selecaofortes\Simulador\Simulador.API\Frontend\dist\out-tsc\library\angular-admin-lte\src\lib\layout\header\header.component.js.map
C:\Users\Donzello\source\repos\selecaofortes\Simulador\Simulador.API\Frontend\dist\out-tsc\library\angular-admin-lte\src\lib\layout\header\header.module.js
C:\Users\Donzello\source\repos\selecaofortes\Simulador\Simulador.API\Frontend\dist\out-tsc\library\angular-admin-lte\src\lib\layout\header\header.module.js.map
C:\Users\Donzello\source\repos\selecaofortes\Simulador\Simulador.API\Frontend\dist\out-tsc\library\angular-admin-lte\src\lib\animations\animations.interface.js
C:\Users\Donzello\source\repos\selecaofortes\Simulador\Simulador.API\Frontend\dist\out-tsc\library\angular-admin-lte\src\lib\animations\animations.interface.js.map
C:\Users\Donzello\source\repos\selecaofortes\Simulador\Simulador.API\Frontend\dist\out-tsc\library\angular-admin-lte\src\lib\animations\animations.directive.js
C:\Users\Donzello\source\repos\selecaofortes\Simulador\Simulador.API\Frontend\dist\out-tsc\library\angular-admin-lte\src\lib\animations\animations.directive.js.map
C:\Users\Donzello\source\repos\selecaofortes\Simulador\Simulador.API\Frontend\dist\out-tsc\library\angular-admin-lte\src\lib\animations\animations.module.js
C:\Users\Donzello\source\repos\selecaofortes\Simulador\Simulador.API\Frontend\dist\out-tsc\library\angular-admin-lte\src\lib\animations\animations.module.js.map
C:\Users\Donzello\source\repos\selecaofortes\Simulador\Simulador.API\Frontend\dist\out-tsc\library\angular-admin-lte\src\lib\layout\sidebar-left\sidebar-left.directive.js
C:\Users\Donzello\source\repos\selecaofortes\Simulador\Simulador.API\Frontend\dist\out-tsc\library\angular-admin-lte\src\lib\layout\sidebar-left\sidebar-left.directive.js.map
C:\Users\Donzello\source\repos\selecaofortes\Simulador\Simulador.API\Frontend\dist\out-tsc\library\angular-admin-lte\src\lib\layout\wrapper\wrapper.service.js
C:\Users\Donzello\source\repos\selecaofortes\Simulador\Simulador.API\Frontend\dist\out-tsc\library\angular-admin-lte\src\lib\layout\wrapper\wrapper.service.js.map
C:\Users\Donzello\source\repos\selecaofortes\Simulador\Simulador.API\Frontend\dist\out-tsc\library\angular-admin-lte\src\lib\layout\sidebar-left\sidebar-left.component.js
C:\Users\Donzello\source\repos\selecaofortes\Simulador\Simulador.API\Frontend\dist\out-tsc\library\angular-admin-lte\src\lib\layout\sidebar-left\sidebar-left.component.js.map
C:\Users\Donzello\source\repos\selecaofortes\Simulador\Simulador.API\Frontend\dist\out-tsc\library\angular-admin-lte\src\lib\layout\sidebar-left\sidebar-left.module.js
C:\Users\Donzello\source\repos\selecaofortes\Simulador\Simulador.API\Frontend\dist\out-tsc\library\angular-admin-lte\src\lib\layout\sidebar-left\sidebar-left.module.js.map
C:\Users\Donzello\source\repos\selecaofortes\Simulador\Simulador.API\Frontend\dist\out-tsc\library\angular-admin-lte\src\lib\layout\sidebar-right\sidebar-right.component.js
C:\Users\Donzello\source\repos\selecaofortes\Simulador\Simulador.API\Frontend\dist\out-tsc\library\angular-admin-lte\src\lib\layout\sidebar-right\sidebar-right.component.js.map
C:\Users\Donzello\source\repos\selecaofortes\Simulador\Simulador.API\Frontend\dist\out-tsc\library\angular-admin-lte\src\lib\layout\sidebar-right\sidebar-right.module.js
C:\Users\Donzello\source\repos\selecaofortes\Simulador\Simulador.API\Frontend\dist\out-tsc\library\angular-admin-lte\src\lib\layout\sidebar-right\sidebar-right.module.js.map
C:\Users\Donzello\source\repos\selecaofortes\Simulador\Simulador.API\Frontend\dist\out-tsc\library\angular-admin-lte\src\lib\layout\wrapper\wrapper.component.js
C:\Users\Donzello\source\repos\selecaofortes\Simulador\Simulador.API\Frontend\dist\out-tsc\library\angular-admin-lte\src\lib\layout\wrapper\wrapper.component.js.map
C:\Users\Donzello\source\repos\selecaofortes\Simulador\Simulador.API\Frontend\dist\out-tsc\library\angular-admin-lte\src\lib\layout\wrapper\wrapper.module.js
C:\Users\Donzello\source\repos\selecaofortes\Simulador\Simulador.API\Frontend\dist\out-tsc\library\angular-admin-lte\src\lib\layout\wrapper\wrapper.module.js.map
C:\Users\Donzello\source\repos\selecaofortes\Simulador\Simulador.API\Frontend\dist\out-tsc\library\angular-admin-lte\src\lib\layout\layout.service.js
C:\Users\Donzello\source\repos\selecaofortes\Simulador\Simulador.API\Frontend\dist\out-tsc\library\angular-admin-lte\src\lib\layout\layout.service.js.map
C:\Users\Donzello\source\repos\selecaofortes\Simulador\Simulador.API\Frontend\dist\out-tsc\library\angular-admin-lte\src\lib\layout\layout.provider.js
C:\Users\Donzello\source\repos\selecaofortes\Simulador\Simulador.API\Frontend\dist\out-tsc\library\angular-admin-lte\src\lib\layout\layout.provider.js.map
C:\Users\Donzello\source\repos\selecaofortes\Simulador\Simulador.API\Frontend\dist\out-tsc\library\angular-admin-lte\src\lib\layout\layout.module.js
C:\Users\Donzello\source\repos\selecaofortes\Simulador\Simulador.API\Frontend\dist\out-tsc\library\angular-admin-lte\src\lib\layout\layout.module.js.map
C:\Users\Donzello\source\repos\selecaofortes\Simulador\Simulador.API\Frontend\dist\out-tsc\library\angular-admin-lte\src\lib\color\color.definition.js
C:\Users\Donzello\source\repos\selecaofortes\Simulador\Simulador.API\Frontend\dist\out-tsc\library\angular-admin-lte\src\lib\color\color.definition.js.map
C:\Users\Donzello\source\repos\selecaofortes\Simulador\Simulador.API\Frontend\dist\out-tsc\library\angular-admin-lte\src\lib\color\color.service.js
C:\Users\Donzello\source\repos\selecaofortes\Simulador\Simulador.API\Frontend\dist\out-tsc\library\angular-admin-lte\src\lib\color\color.service.js.map
C:\Users\Donzello\source\repos\selecaofortes\Simulador\Simulador.API\Frontend\dist\out-tsc\library\angular-admin-lte\src\lib\color\color.directive.js
C:\Users\Donzello\source\repos\selecaofortes\Simulador\Simulador.API\Frontend\dist\out-tsc\library\angular-admin-lte\src\lib\color\color.directive.js.map
C:\Users\Donzello\source\repos\selecaofortes\Simulador\Simulador.API\Frontend\dist\out-tsc\library\angular-admin-lte\src\lib\color\color.module.js
C:\Users\Donzello\source\repos\selecaofortes\Simulador\Simulador.API\Frontend\dist\out-tsc\library\angular-admin-lte\src\lib\color\color.module.js.map
C:\Users\Donzello\source\repos\selecaofortes\Simulador\Simulador.API\Frontend\dist\out-tsc\library\angular-admin-lte\src\lib\accordion\accordion.directive.js
C:\Users\Donzello\source\repos\selecaofortes\Simulador\Simulador.API\Frontend\dist\out-tsc\library\angular-admin-lte\src\lib\accordion\accordion.directive.js.map
C:\Users\Donzello\source\repos\selecaofortes\Simulador\Simulador.API\Frontend\dist\out-tsc\library\angular-admin-lte\src\lib\accordion\accordion.component.js
C:\Users\Donzello\source\repos\selecaofortes\Simulador\Simulador.API\Frontend\dist\out-tsc\library\angular-admin-lte\src\lib\accordion\accordion.component.js.map
C:\Users\Donzello\source\repos\selecaofortes\Simulador\Simulador.API\Frontend\dist\out-tsc\library\angular-admin-lte\src\lib\accordion\accordion.module.js
C:\Users\Donzello\source\repos\selecaofortes\Simulador\Simulador.API\Frontend\dist\out-tsc\library\angular-admin-lte\src\lib\accordion\accordion.module.js.map
C:\Users\Donzello\source\repos\selecaofortes\Simulador\Simulador.API\Frontend\dist\out-tsc\library\angular-admin-lte\src\lib\alert\alert.component.js
C:\Users\Donzello\source\repos\selecaofortes\Simulador\Simulador.API\Frontend\dist\out-tsc\library\angular-admin-lte\src\lib\alert\alert.component.js.map
C:\Users\Donzello\source\repos\selecaofortes\Simulador\Simulador.API\Frontend\dist\out-tsc\library\angular-admin-lte\src\lib\alert\alert.module.js
C:\Users\Donzello\source\repos\selecaofortes\Simulador\Simulador.API\Frontend\dist\out-tsc\library\angular-admin-lte\src\lib\alert\alert.module.js.map
C:\Users\Donzello\source\repos\selecaofortes\Simulador\Simulador.API\Frontend\dist\out-tsc\library\angular-admin-lte\src\lib\box\box.directive.js
C:\Users\Donzello\source\repos\selecaofortes\Simulador\Simulador.API\Frontend\dist\out-tsc\library\angular-admin-lte\src\lib\box\box.directive.js.map
C:\Users\Donzello\source\repos\selecaofortes\Simulador\Simulador.API\Frontend\dist\out-tsc\library\angular-admin-lte\src\lib\box\box.component.js
C:\Users\Donzello\source\repos\selecaofortes\Simulador\Simulador.API\Frontend\dist\out-tsc\library\angular-admin-lte\src\lib\box\box.component.js.map
C:\Users\Donzello\source\repos\selecaofortes\Simulador\Simulador.API\Frontend\dist\out-tsc\library\angular-admin-lte\src\lib\box\box.module.js
C:\Users\Donzello\source\repos\selecaofortes\Simulador\Simulador.API\Frontend\dist\out-tsc\library\angular-admin-lte\src\lib\box\box.module.js.map
C:\Users\Donzello\source\repos\selecaofortes\Simulador\Simulador.API\Frontend\dist\out-tsc\library\angular-admin-lte\src\lib\box-info\box-info.directive.js
C:\Users\Donzello\source\repos\selecaofortes\Simulador\Simulador.API\Frontend\dist\out-tsc\library\angular-admin-lte\src\lib\box-info\box-info.directive.js.map
C:\Users\Donzello\source\repos\selecaofortes\Simulador\Simulador.API\Frontend\dist\out-tsc\library\angular-admin-lte\src\lib\box-info\box-info.component.js
C:\Users\Donzello\source\repos\selecaofortes\Simulador\Simulador.API\Frontend\dist\out-tsc\library\angular-admin-lte\src\lib\box-info\box-info.component.js.map
C:\Users\Donzello\source\repos\selecaofortes\Simulador\Simulador.API\Frontend\dist\out-tsc\library\angular-admin-lte\src\lib\box-info\box-info.module.js
C:\Users\Donzello\source\repos\selecaofortes\Simulador\Simulador.API\Frontend\dist\out-tsc\library\angular-admin-lte\src\lib\box-info\box-info.module.js.map
C:\Users\Donzello\source\repos\selecaofortes\Simulador\Simulador.API\Frontend\dist\out-tsc\library\angular-admin-lte\src\lib\box-small\box-small.directive.js
C:\Users\Donzello\source\repos\selecaofortes\Simulador\Simulador.API\Frontend\dist\out-tsc\library\angular-admin-lte\src\lib\box-small\box-small.directive.js.map
C:\Users\Donzello\source\repos\selecaofortes\Simulador\Simulador.API\Frontend\dist\out-tsc\library\angular-admin-lte\src\lib\box-small\box-small.component.js
C:\Users\Donzello\source\repos\selecaofortes\Simulador\Simulador.API\Frontend\dist\out-tsc\library\angular-admin-lte\src\lib\box-small\box-small.component.js.map
C:\Users\Donzello\source\repos\selecaofortes\Simulador\Simulador.API\Frontend\dist\out-tsc\library\angular-admin-lte\src\lib\box-small\box-small.module.js
C:\Users\Donzello\source\repos\selecaofortes\Simulador\Simulador.API\Frontend\dist\out-tsc\library\angular-admin-lte\src\lib\box-small\box-small.module.js.map
C:\Users\Donzello\source\repos\selecaofortes\Simulador\Simulador.API\Frontend\dist\out-tsc\library\angular-admin-lte\src\lib\dropdown\dropdown.component.js
C:\Users\Donzello\source\repos\selecaofortes\Simulador\Simulador.API\Frontend\dist\out-tsc\library\angular-admin-lte\src\lib\dropdown\dropdown.component.js.map
C:\Users\Donzello\source\repos\selecaofortes\Simulador\Simulador.API\Frontend\dist\out-tsc\library\angular-admin-lte\src\lib\dropdown\dropdown.module.js
C:\Users\Donzello\source\repos\selecaofortes\Simulador\Simulador.API\Frontend\dist\out-tsc\library\angular-admin-lte\src\lib\dropdown\dropdown.module.js.map
C:\Users\Donzello\source\repos\selecaofortes\Simulador\Simulador.API\Frontend\dist\out-tsc\library\angular-admin-lte\src\lib\form\input-group\input-group.directive.js
C:\Users\Donzello\source\repos\selecaofortes\Simulador\Simulador.API\Frontend\dist\out-tsc\library\angular-admin-lte\src\lib\form\input-group\input-group.directive.js.map
C:\Users\Donzello\source\repos\selecaofortes\Simulador\Simulador.API\Frontend\dist\out-tsc\library\angular-admin-lte\src\lib\services\class.service.js
C:\Users\Donzello\source\repos\selecaofortes\Simulador\Simulador.API\Frontend\dist\out-tsc\library\angular-admin-lte\src\lib\services\class.service.js.map
C:\Users\Donzello\source\repos\selecaofortes\Simulador\Simulador.API\Frontend\dist\out-tsc\library\angular-admin-lte\src\lib\form\input-text\input-text.directive.js
C:\Users\Donzello\source\repos\selecaofortes\Simulador\Simulador.API\Frontend\dist\out-tsc\library\angular-admin-lte\src\lib\form\input-text\input-text.directive.js.map
C:\Users\Donzello\source\repos\selecaofortes\Simulador\Simulador.API\Frontend\dist\out-tsc\library\angular-admin-lte\src\lib\form\input-group\input-group.component.js
C:\Users\Donzello\source\repos\selecaofortes\Simulador\Simulador.API\Frontend\dist\out-tsc\library\angular-admin-lte\src\lib\form\input-group\input-group.component.js.map
C:\Users\Donzello\source\repos\selecaofortes\Simulador\Simulador.API\Frontend\dist\out-tsc\library\angular-admin-lte\src\lib\form\input-group\input-group.module.js
C:\Users\Donzello\source\repos\selecaofortes\Simulador\Simulador.API\Frontend\dist\out-tsc\library\angular-admin-lte\src\lib\form\input-group\input-group.module.js.map
C:\Users\Donzello\source\repos\selecaofortes\Simulador\Simulador.API\Frontend\dist\out-tsc\library\angular-admin-lte\src\lib\form\input-text\input-text.module.js
C:\Users\Donzello\source\repos\selecaofortes\Simulador\Simulador.API\Frontend\dist\out-tsc\library\angular-admin-lte\src\lib\form\input-text\input-text.module.js.map
C:\Users\Donzello\source\repos\selecaofortes\Simulador\Simulador.API\Frontend\dist\out-tsc\library\angular-admin-lte\src\lib\tabs\tabs.directive.js
C:\Users\Donzello\source\repos\selecaofortes\Simulador\Simulador.API\Frontend\dist\out-tsc\library\angular-admin-lte\src\lib\tabs\tabs.directive.js.map
C:\Users\Donzello\source\repos\selecaofortes\Simulador\Simulador.API\Frontend\dist\out-tsc\library\angular-admin-lte\src\lib\tabs\tabs.component.js
C:\Users\Donzello\source\repos\selecaofortes\Simulador\Simulador.API\Frontend\dist\out-tsc\library\angular-admin-lte\src\lib\tabs\tabs.component.js.map
C:\Users\Donzello\source\repos\selecaofortes\Simulador\Simulador.API\Frontend\dist\out-tsc\library\angular-admin-lte\src\lib\tabs\tabs.module.js
C:\Users\Donzello\source\repos\selecaofortes\Simulador\Simulador.API\Frontend\dist\out-tsc\library\angular-admin-lte\src\lib\tabs\tabs.module.js.map
C:\Users\Donzello\source\repos\selecaofortes\Simulador\Simulador.API\Frontend\dist\out-tsc\library\angular-admin-lte\src\index.js
C:\Users\Donzello\source\repos\selecaofortes\Simulador\Simulador.API\Frontend\dist\out-tsc\library\angular-admin-lte\src\index.js.map
C:\Users\Donzello\source\repos\selecaofortes\Simulador\Simulador.API\Frontend\dist\out-tsc\library\angular-admin-lte\src\test.js
C:\Users\Donzello\source\repos\selecaofortes\Simulador\Simulador.API\Frontend\dist\out-tsc\library\angular-admin-lte\src\test.js.map
C:\Users\Donzello\source\repos\selecaofortes\Simulador\Simulador.API\Frontend\dist\out-tsc\library\angular-admin-lte\src\lib\services\style.service.js
C:\Users\Donzello\source\repos\selecaofortes\Simulador\Simulador.API\Frontend\dist\out-tsc\library\angular-admin-lte\src\lib\services\style.service.js.map
C:\Users\Donzello\source\repos\selecaofortes\Simulador\Simulador.API\Frontend\dist\out-tsc\src\app\admin-lte.conf.js
C:\Users\Donzello\source\repos\selecaofortes\Simulador\Simulador.API\Frontend\dist\out-tsc\src\app\admin-lte.conf.js.map
C:\Users\Donzello\source\repos\selecaofortes\Simulador\Simulador.API\Frontend\dist\out-tsc\src\app\home\home.component.js
C:\Users\Donzello\source\repos\selecaofortes\Simulador\Simulador.API\Frontend\dist\out-tsc\src\app\home\home.component.js.map
C:\Users\Donzello\source\repos\selecaofortes\Simulador\Simulador.API\Frontend\dist\out-tsc\src\app\home\index.js
C:\Users\Donzello\source\repos\selecaofortes\Simulador\Simulador.API\Frontend\dist\out-tsc\src\app\home\index.js.map
C:\Users\Donzello\source\repos\selecaofortes\Simulador\Simulador.API\Frontend\dist\out-tsc\src\app\_services\alert.service.js
C:\Users\Donzello\source\repos\selecaofortes\Simulador\Simulador.API\Frontend\dist\out-tsc\src\app\_services\alert.service.js.map
C:\Users\Donzello\source\repos\selecaofortes\Simulador\Simulador.API\Frontend\dist\out-tsc\src\app\_globals\global.js
C:\Users\Donzello\source\repos\selecaofortes\Simulador\Simulador.API\Frontend\dist\out-tsc\src\app\_globals\global.js.map
C:\Users\Donzello\source\repos\selecaofortes\Simulador\Simulador.API\Frontend\dist\out-tsc\src\app\_globals\index.js
C:\Users\Donzello\source\repos\selecaofortes\Simulador\Simulador.API\Frontend\dist\out-tsc\src\app\_globals\index.js.map
C:\Users\Donzello\source\repos\selecaofortes\Simulador\Simulador.API\Frontend\dist\out-tsc\src\app\_models\user.js
C:\Users\Donzello\source\repos\selecaofortes\Simulador\Simulador.API\Frontend\dist\out-tsc\src\app\_models\user.js.map
C:\Users\Donzello\source\repos\selecaofortes\Simulador\Simulador.API\Frontend\dist\out-tsc\src\app\_models\simulation.js
C:\Users\Donzello\source\repos\selecaofortes\Simulador\Simulador.API\Frontend\dist\out-tsc\src\app\_models\simulation.js.map
C:\Users\Donzello\source\repos\selecaofortes\Simulador\Simulador.API\Frontend\dist\out-tsc\src\app\_models\index.js
C:\Users\Donzello\source\repos\selecaofortes\Simulador\Simulador.API\Frontend\dist\out-tsc\src\app\_models\index.js.map
C:\Users\Donzello\source\repos\selecaofortes\Simulador\Simulador.API\Frontend\dist\out-tsc\src\app\_services\authentication.service.js
C:\Users\Donzello\source\repos\selecaofortes\Simulador\Simulador.API\Frontend\dist\out-tsc\src\app\_services\authentication.service.js.map
C:\Users\Donzello\source\repos\selecaofortes\Simulador\Simulador.API\Frontend\dist\out-tsc\src\app\_services\user.service.js
C:\Users\Donzello\source\repos\selecaofortes\Simulador\Simulador.API\Frontend\dist\out-tsc\src\app\_services\user.service.js.map
C:\Users\Donzello\source\repos\selecaofortes\Simulador\Simulador.API\Frontend\dist\out-tsc\src\app\_services\simulation.service.js
C:\Users\Donzello\source\repos\selecaofortes\Simulador\Simulador.API\Frontend\dist\out-tsc\src\app\_services\simulation.service.js.map
C:\Users\Donzello\source\repos\selecaofortes\Simulador\Simulador.API\Frontend\dist\out-tsc\src\app\_services\index.js
C:\Users\Donzello\source\repos\selecaofortes\Simulador\Simulador.API\Frontend\dist\out-tsc\src\app\_services\index.js.map
C:\Users\Donzello\source\repos\selecaofortes\Simulador\Simulador.API\Frontend\dist\out-tsc\src\app\login\login.component.js
C:\Users\Donzello\source\repos\selecaofortes\Simulador\Simulador.API\Frontend\dist\out-tsc\src\app\login\login.component.js.map
C:\Users\Donzello\source\repos\selecaofortes\Simulador\Simulador.API\Frontend\dist\out-tsc\src\app\login\index.js
C:\Users\Donzello\source\repos\selecaofortes\Simulador\Simulador.API\Frontend\dist\out-tsc\src\app\login\index.js.map
C:\Users\Donzello\source\repos\selecaofortes\Simulador\Simulador.API\Frontend\dist\out-tsc\src\app\logout\logout.component.js
C:\Users\Donzello\source\repos\selecaofortes\Simulador\Simulador.API\Frontend\dist\out-tsc\src\app\logout\logout.component.js.map
C:\Users\Donzello\source\repos\selecaofortes\Simulador\Simulador.API\Frontend\dist\out-tsc\src\app\register\register.component.js
C:\Users\Donzello\source\repos\selecaofortes\Simulador\Simulador.API\Frontend\dist\out-tsc\src\app\register\register.component.js.map
C:\Users\Donzello\source\repos\selecaofortes\Simulador\Simulador.API\Frontend\dist\out-tsc\src\app\register\index.js
C:\Users\Donzello\source\repos\selecaofortes\Simulador\Simulador.API\Frontend\dist\out-tsc\src\app\register\index.js.map
C:\Users\Donzello\source\repos\selecaofortes\Simulador\Simulador.API\Frontend\dist\out-tsc\src\app\_helpers\auth.guard.js
C:\Users\Donzello\source\repos\selecaofortes\Simulador\Simulador.API\Frontend\dist\out-tsc\src\app\_helpers\auth.guard.js.map
C:\Users\Donzello\source\repos\selecaofortes\Simulador\Simulador.API\Frontend\dist\out-tsc\src\app\_helpers\error.interceptor.js
C:\Users\Donzello\source\repos\selecaofortes\Simulador\Simulador.API\Frontend\dist\out-tsc\src\app\_helpers\error.interceptor.js.map
C:\Users\Donzello\source\repos\selecaofortes\Simulador\Simulador.API\Frontend\dist\out-tsc\src\app\_helpers\jwt.interceptor.js
C:\Users\Donzello\source\repos\selecaofortes\Simulador\Simulador.API\Frontend\dist\out-tsc\src\app\_helpers\jwt.interceptor.js.map
C:\Users\Donzello\source\repos\selecaofortes\Simulador\Simulador.API\Frontend\dist\out-tsc\src\app\_helpers\fake-backend.js
C:\Users\Donzello\source\repos\selecaofortes\Simulador\Simulador.API\Frontend\dist\out-tsc\src\app\_helpers\fake-backend.js.map
C:\Users\Donzello\source\repos\selecaofortes\Simulador\Simulador.API\Frontend\dist\out-tsc\src\app\_helpers\index.js
C:\Users\Donzello\source\repos\selecaofortes\Simulador\Simulador.API\Frontend\dist\out-tsc\src\app\_helpers\index.js.map
C:\Users\Donzello\source\repos\selecaofortes\Simulador\Simulador.API\Frontend\dist\out-tsc\src\app\simulations\new\new.component.js
C:\Users\Donzello\source\repos\selecaofortes\Simulador\Simulador.API\Frontend\dist\out-tsc\src\app\simulations\new\new.component.js.map
C:\Users\Donzello\source\repos\selecaofortes\Simulador\Simulador.API\Frontend\dist\out-tsc\src\app\simulations\list\list.component.js
C:\Users\Donzello\source\repos\selecaofortes\Simulador\Simulador.API\Frontend\dist\out-tsc\src\app\simulations\list\list.component.js.map
C:\Users\Donzello\source\repos\selecaofortes\Simulador\Simulador.API\Frontend\dist\out-tsc\src\app\simulations\index.js
C:\Users\Donzello\source\repos\selecaofortes\Simulador\Simulador.API\Frontend\dist\out-tsc\src\app\simulations\index.js.map
C:\Users\Donzello\source\repos\selecaofortes\Simulador\Simulador.API\Frontend\dist\out-tsc\src\app\app-routing.module.js
C:\Users\Donzello\source\repos\selecaofortes\Simulador\Simulador.API\Frontend\dist\out-tsc\src\app\app-routing.module.js.map
C:\Users\Donzello\source\repos\selecaofortes\Simulador\Simulador.API\Frontend\dist\out-tsc\src\app\core\header-inner\header-inner.component.js
C:\Users\Donzello\source\repos\selecaofortes\Simulador\Simulador.API\Frontend\dist\out-tsc\src\app\core\header-inner\header-inner.component.js.map
C:\Users\Donzello\source\repos\selecaofortes\Simulador\Simulador.API\Frontend\dist\out-tsc\src\app\core\sidebar-left-inner\sidebar-left-inner.component.js
C:\Users\Donzello\source\repos\selecaofortes\Simulador\Simulador.API\Frontend\dist\out-tsc\src\app\core\sidebar-left-inner\sidebar-left-inner.component.js.map
C:\Users\Donzello\source\repos\selecaofortes\Simulador\Simulador.API\Frontend\dist\out-tsc\src\app\core\sidebar-right-inner\sidebar-right-inner.component.js
C:\Users\Donzello\source\repos\selecaofortes\Simulador\Simulador.API\Frontend\dist\out-tsc\src\app\core\sidebar-right-inner\sidebar-right-inner.component.js.map
C:\Users\Donzello\source\repos\selecaofortes\Simulador\Simulador.API\Frontend\dist\out-tsc\src\app\core\core.module.js
C:\Users\Donzello\source\repos\selecaofortes\Simulador\Simulador.API\Frontend\dist\out-tsc\src\app\core\core.module.js.map
C:\Users\Donzello\source\repos\selecaofortes\Simulador\Simulador.API\Frontend\dist\out-tsc\src\app\app.component.js
C:\Users\Donzello\source\repos\selecaofortes\Simulador\Simulador.API\Frontend\dist\out-tsc\src\app\app.component.js.map
C:\Users\Donzello\source\repos\selecaofortes\Simulador\Simulador.API\Frontend\dist\out-tsc\src\app\_components\alert.component.js
C:\Users\Donzello\source\repos\selecaofortes\Simulador\Simulador.API\Frontend\dist\out-tsc\src\app\_components\alert.component.js.map
C:\Users\Donzello\source\repos\selecaofortes\Simulador\Simulador.API\Frontend\dist\out-tsc\src\app\_components\index.js
C:\Users\Donzello\source\repos\selecaofortes\Simulador\Simulador.API\Frontend\dist\out-tsc\src\app\_components\index.js.map
C:\Users\Donzello\source\repos\selecaofortes\Simulador\Simulador.API\Frontend\dist\out-tsc\src\app\app.module.js
C:\Users\Donzello\source\repos\selecaofortes\Simulador\Simulador.API\Frontend\dist\out-tsc\src\app\app.module.js.map
C:\Users\Donzello\source\repos\selecaofortes\Simulador\Simulador.API\Frontend\dist\out-tsc\src\environments\environment.js
C:\Users\Donzello\source\repos\selecaofortes\Simulador\Simulador.API\Frontend\dist\out-tsc\src\environments\environment.js.map
C:\Users\Donzello\source\repos\selecaofortes\Simulador\Simulador.API\Frontend\dist\out-tsc\src\main.js
C:\Users\Donzello\source\repos\selecaofortes\Simulador\Simulador.API\Frontend\dist\out-tsc\src\main.js.map
C:\Users\Donzello\source\repos\selecaofortes\Simulador\Simulador.API\Frontend\dist\out-tsc\src\polyfills.js
C:\Users\Donzello\source\repos\selecaofortes\Simulador\Simulador.API\Frontend\dist\out-tsc\src\polyfills.js.map
C:\Users\Donzello\source\repos\selecaofortes\Simulador\Simulador.API\Frontend\dist\out-tsc\src\test.js
C:\Users\Donzello\source\repos\selecaofortes\Simulador\Simulador.API\Frontend\dist\out-tsc\src\test.js.map
C:\Users\Donzello\source\repos\selecaofortes\Simulador\Simulador.API\Frontend\dist\out-tsc\src\app\app.component.spec.js
C:\Users\Donzello\source\repos\selecaofortes\Simulador\Simulador.API\Frontend\dist\out-tsc\src\app\app.component.spec.js.map
C:\Users\Donzello\source\repos\selecaofortes\Simulador\Simulador.API\Frontend\dist\out-tsc\src\app\core\header-inner\header-inner.component.spec.js
C:\Users\Donzello\source\repos\selecaofortes\Simulador\Simulador.API\Frontend\dist\out-tsc\src\app\core\header-inner\header-inner.component.spec.js.map
C:\Users\Donzello\source\repos\selecaofortes\Simulador\Simulador.API\Frontend\dist\out-tsc\src\app\core\sidebar-left-inner\sidebar-left-inner.component.spec.js
C:\Users\Donzello\source\repos\selecaofortes\Simulador\Simulador.API\Frontend\dist\out-tsc\src\app\core\sidebar-left-inner\sidebar-left-inner.component.spec.js.map
C:\Users\Donzello\source\repos\selecaofortes\Simulador\Simulador.API\Frontend\dist\out-tsc\src\app\core\sidebar-right-inner\sidebar-right-inner.component.spec.js
C:\Users\Donzello\source\repos\selecaofortes\Simulador\Simulador.API\Frontend\dist\out-tsc\src\app\core\sidebar-right-inner\sidebar-right-inner.component.spec.js.map
C:\Users\Donzello\source\repos\selecaofortes\Simulador\Simulador.API\Frontend\dist\out-tsc\src\app\home\home.component.spec.js
C:\Users\Donzello\source\repos\selecaofortes\Simulador\Simulador.API\Frontend\dist\out-tsc\src\app\home\home.component.spec.js.map
C:\Users\Donzello\source\repos\selecaofortes\Simulador\Simulador.API\Frontend\dist\out-tsc\src\environments\environment.prod.js
C:\Users\Donzello\source\repos\selecaofortes\Simulador\Simulador.API\Frontend\dist\out-tsc\src\environments\environment.prod.js.map
